// Jest Snapshot v1, https://goo.gl/fbAQLP

exports[`components | MArvelHero | index should render component 1`] = `
<div>
  <div
    class="MuiGrid-root MuiGrid-item MuiGrid-grid-xs-12 MuiGrid-grid-md-4"
  >
    <div
      class="MuiPaper-root makeStyles-container-1 MuiPaper-elevation3 MuiPaper-rounded"
    >
      <img
        alt=""
        class="makeStyles-img-2"
        src="."
      />
      <div
        class="MuiGrid-root makeStyles-infoContainer-3"
      >
        <a
          href="/undefined"
        >
          <h6
            class="MuiTypography-root makeStyles-heroTitle-4 MuiTypography-h6 MuiTypography-gutterBottom"
          />
        </a>
        <div
          class="MuiGrid-root MuiGrid-container"
        >
          <a
            class="makeStyles-link-5"
            href=""
            rel="noreferrer"
            target="_blank"
          />
        </div>
      </div>
    </div>
  </div>
</div>
`;
